{
  "description": "Affinity is a group of affinity scheduling rules.",
  "type": "object",
  "properties": {
    "nodeAffinity": {
      "description": "Node affinity is a group of node affinity scheduling rules.",
      "type": "object",
      "properties": {
        "preferredDuringSchedulingIgnoredDuringExecution": {
          "type": "array",
          "title": "The scheduler will prefer to schedule pods to nodes that satisfy\nthe affinity expressions specified by this field, but it may choose\na node that violates one or more of the expressions. The node that is\nmost preferred is the one with the greatest sum of weights, i.e.\nfor each node that meets all of the scheduling requirements (resource\nrequest, requiredDuringScheduling affinity expressions, etc.),\ncompute a sum by iterating through the elements of this field and adding\n\"weight\" to the sum if the node matches the corresponding matchExpressions; the\nnode(s) with the highest sum are the most preferred.\n+optional",
          "items": {
            "description": "An empty preferred scheduling term matches all objects with implicit weight 0\n(i.e. it's a no-op). A null preferred scheduling term matches no objects (i.e. is also a no-op).",
            "type": "object",
            "properties": {
              "preference": {
                "description": "A null or empty node selector term matches no objects. The requirements of\nthem are ANDed.\nThe TopologySelectorTerm type implements a subset of the NodeSelectorTerm.",
                "type": "object",
                "properties": {
                  "matchExpressions": {
                    "type": "array",
                    "title": "A list of node selector requirements by node's labels.\n+optional",
                    "items": {
                      "description": "A node selector requirement is a selector that contains values, a key, and an operator\nthat relates the key and values.",
                      "type": "object",
                      "properties": {
                        "key": {
                          "description": "The label key that the selector applies to.",
                          "type": "string"
                        },
                        "operator": {
                          "description": "Represents a key's relationship to a set of values.\nValid operators are In, NotIn, Exists, DoesNotExist. Gt, and Lt.",
                          "type": "string"
                        },
                        "values": {
                          "type": "array",
                          "title": "An array of string values. If the operator is In or NotIn,\nthe values array must be non-empty. If the operator is Exists or DoesNotExist,\nthe values array must be empty. If the operator is Gt or Lt, the values\narray must have a single element, which will be interpreted as an integer.\nThis array is replaced during a strategic merge patch.\n+optional",
                          "items": {
                            "type": "string"
                          }
                        }
                      }
                    }
                  },
                  "matchFields": {
                    "type": "array",
                    "title": "A list of node selector requirements by node's fields.\n+optional",
                    "items": {
                      "description": "A node selector requirement is a selector that contains values, a key, and an operator\nthat relates the key and values.",
                      "type": "object",
                      "properties": {
                        "key": {
                          "description": "The label key that the selector applies to.",
                          "type": "string"
                        },
                        "operator": {
                          "description": "Represents a key's relationship to a set of values.\nValid operators are In, NotIn, Exists, DoesNotExist. Gt, and Lt.",
                          "type": "string"
                        },
                        "values": {
                          "type": "array",
                          "title": "An array of string values. If the operator is In or NotIn,\nthe values array must be non-empty. If the operator is Exists or DoesNotExist,\nthe values array must be empty. If the operator is Gt or Lt, the values\narray must have a single element, which will be interpreted as an integer.\nThis array is replaced during a strategic merge patch.\n+optional",
                          "items": {
                            "type": "string"
                          }
                        }
                      }
                    }
                  }
                }
              },
              "weight": {
                "description": "Weight associated with matching the corresponding nodeSelectorTerm, in the range 1-100.",
                "type": "integer",
                "format": "int32"
              }
            }
          }
        },
        "requiredDuringSchedulingIgnoredDuringExecution": {
          "description": "A node selector represents the union of the results of one or more label queries\nover a set of nodes; that is, it represents the OR of the selectors represented\nby the node selector terms.",
          "type": "object",
          "properties": {
            "nodeSelectorTerms": {
              "description": "Required. A list of node selector terms. The terms are ORed.",
              "type": "array",
              "items": {
                "description": "A null or empty node selector term matches no objects. The requirements of\nthem are ANDed.\nThe TopologySelectorTerm type implements a subset of the NodeSelectorTerm.",
                "type": "object",
                "properties": {
                  "matchExpressions": {
                    "type": "array",
                    "title": "A list of node selector requirements by node's labels.\n+optional",
                    "items": {
                      "description": "A node selector requirement is a selector that contains values, a key, and an operator\nthat relates the key and values.",
                      "type": "object",
                      "properties": {
                        "key": {
                          "description": "The label key that the selector applies to.",
                          "type": "string"
                        },
                        "operator": {
                          "description": "Represents a key's relationship to a set of values.\nValid operators are In, NotIn, Exists, DoesNotExist. Gt, and Lt.",
                          "type": "string"
                        },
                        "values": {
                          "type": "array",
                          "title": "An array of string values. If the operator is In or NotIn,\nthe values array must be non-empty. If the operator is Exists or DoesNotExist,\nthe values array must be empty. If the operator is Gt or Lt, the values\narray must have a single element, which will be interpreted as an integer.\nThis array is replaced during a strategic merge patch.\n+optional",
                          "items": {
                            "type": "string"
                          }
                        }
                      }
                    }
                  },
                  "matchFields": {
                    "type": "array",
                    "title": "A list of node selector requirements by node's fields.\n+optional",
                    "items": {
                      "description": "A node selector requirement is a selector that contains values, a key, and an operator\nthat relates the key and values.",
                      "type": "object",
                      "properties": {
                        "key": {
                          "description": "The label key that the selector applies to.",
                          "type": "string"
                        },
                        "operator": {
                          "description": "Represents a key's relationship to a set of values.\nValid operators are In, NotIn, Exists, DoesNotExist. Gt, and Lt.",
                          "type": "string"
                        },
                        "values": {
                          "type": "array",
                          "title": "An array of string values. If the operator is In or NotIn,\nthe values array must be non-empty. If the operator is Exists or DoesNotExist,\nthe values array must be empty. If the operator is Gt or Lt, the values\narray must have a single element, which will be interpreted as an integer.\nThis array is replaced during a strategic merge patch.\n+optional",
                          "items": {
                            "type": "string"
                          }
                        }
                      }
                    }
                  }
                }
              }
            }
          }
        }
      }
    },
    "podAffinity": {
      "description": "Pod affinity is a group of inter pod affinity scheduling rules.",
      "type": "object",
      "properties": {
        "preferredDuringSchedulingIgnoredDuringExecution": {
          "type": "array",
          "title": "The scheduler will prefer to schedule pods to nodes that satisfy\nthe affinity expressions specified by this field, but it may choose\na node that violates one or more of the expressions. The node that is\nmost preferred is the one with the greatest sum of weights, i.e.\nfor each node that meets all of the scheduling requirements (resource\nrequest, requiredDuringScheduling affinity expressions, etc.),\ncompute a sum by iterating through the elements of this field and adding\n\"weight\" to the sum if the node has pods which matches the corresponding podAffinityTerm; the\nnode(s) with the highest sum are the most preferred.\n+optional",
          "items": {
            "type": "object",
            "title": "The weights of all of the matched WeightedPodAffinityTerm fields are added per-node to find the most preferred node(s)",
            "properties": {
              "podAffinityTerm": {
                "type": "object",
                "title": "Defines a set of pods (namely those matching the labelSelector\nrelative to the given namespace(s)) that this pod should be\nco-located (affinity) or not co-located (anti-affinity) with,\nwhere co-located is defined as running on a node whose value of\nthe label with key <topologyKey> matches that of any node on which\na pod of the set of pods is running",
                "properties": {
                  "labelSelector": {
                    "description": "A label selector is a label query over a set of resources. The result of matchLabels and\nmatchExpressions are ANDed. An empty label selector matches all objects. A null\nlabel selector matches no objects.",
                    "type": "object",
                    "properties": {
                      "matchExpressions": {
                        "type": "array",
                        "title": "matchExpressions is a list of label selector requirements. The requirements are ANDed.\n+optional",
                        "items": {
                          "description": "A label selector requirement is a selector that contains values, a key, and an operator that\nrelates the key and values.",
                          "type": "object",
                          "properties": {
                            "key": {
                              "type": "string",
                              "title": "key is the label key that the selector applies to.\n+patchMergeKey=key\n+patchStrategy=merge"
                            },
                            "operator": {
                              "description": "operator represents a key's relationship to a set of values.\nValid operators are In, NotIn, Exists and DoesNotExist.",
                              "type": "string"
                            },
                            "values": {
                              "type": "array",
                              "title": "values is an array of string values. If the operator is In or NotIn,\nthe values array must be non-empty. If the operator is Exists or DoesNotExist,\nthe values array must be empty. This array is replaced during a strategic\nmerge patch.\n+optional",
                              "items": {
                                "type": "string"
                              }
                            }
                          }
                        }
                      },
                      "matchLabels": {
                        "type": "object",
                        "title": "matchLabels is a map of {key,value} pairs. A single {key,value} in the matchLabels\nmap is equivalent to an element of matchExpressions, whose key field is \"key\", the\noperator is \"In\", and the values array contains only \"value\". The requirements are ANDed.\n+optional",
                        "additionalProperties": {
                          "type": "string"
                        }
                      }
                    }
                  },
                  "namespaces": {
                    "type": "array",
                    "title": "namespaces specifies which namespaces the labelSelector applies to (matches against);\nnull or empty list means \"this pod's namespace\"\n+optional",
                    "items": {
                      "type": "string"
                    }
                  },
                  "topologyKey": {
                    "description": "This pod should be co-located (affinity) or not co-located (anti-affinity) with the pods matching\nthe labelSelector in the specified namespaces, where co-located is defined as running on a node\nwhose value of the label with key topologyKey matches that of any node on which any of the\nselected pods is running.\nEmpty topologyKey is not allowed.",
                    "type": "string"
                  }
                }
              },
              "weight": {
                "description": "weight associated with matching the corresponding podAffinityTerm,\nin the range 1-100.",
                "type": "integer",
                "format": "int32"
              }
            }
          }
        },
        "requiredDuringSchedulingIgnoredDuringExecution": {
          "type": "array",
          "title": "If the affinity requirements specified by this field are not met at\nscheduling time, the pod will not be scheduled onto the node.\nIf the affinity requirements specified by this field cease to be met\nat some point during pod execution (e.g. due to a pod label update), the\nsystem may or may not try to eventually evict the pod from its node.\nWhen there are multiple elements, the lists of nodes corresponding to each\npodAffinityTerm are intersected, i.e. all terms must be satisfied.\n+optional",
          "items": {
            "type": "object",
            "title": "Defines a set of pods (namely those matching the labelSelector\nrelative to the given namespace(s)) that this pod should be\nco-located (affinity) or not co-located (anti-affinity) with,\nwhere co-located is defined as running on a node whose value of\nthe label with key <topologyKey> matches that of any node on which\na pod of the set of pods is running",
            "properties": {
              "labelSelector": {
                "description": "A label selector is a label query over a set of resources. The result of matchLabels and\nmatchExpressions are ANDed. An empty label selector matches all objects. A null\nlabel selector matches no objects.",
                "type": "object",
                "properties": {
                  "matchExpressions": {
                    "type": "array",
                    "title": "matchExpressions is a list of label selector requirements. The requirements are ANDed.\n+optional",
                    "items": {
                      "description": "A label selector requirement is a selector that contains values, a key, and an operator that\nrelates the key and values.",
                      "type": "object",
                      "properties": {
                        "key": {
                          "type": "string",
                          "title": "key is the label key that the selector applies to.\n+patchMergeKey=key\n+patchStrategy=merge"
                        },
                        "operator": {
                          "description": "operator represents a key's relationship to a set of values.\nValid operators are In, NotIn, Exists and DoesNotExist.",
                          "type": "string"
                        },
                        "values": {
                          "type": "array",
                          "title": "values is an array of string values. If the operator is In or NotIn,\nthe values array must be non-empty. If the operator is Exists or DoesNotExist,\nthe values array must be empty. This array is replaced during a strategic\nmerge patch.\n+optional",
                          "items": {
                            "type": "string"
                          }
                        }
                      }
                    }
                  },
                  "matchLabels": {
                    "type": "object",
                    "title": "matchLabels is a map of {key,value} pairs. A single {key,value} in the matchLabels\nmap is equivalent to an element of matchExpressions, whose key field is \"key\", the\noperator is \"In\", and the values array contains only \"value\". The requirements are ANDed.\n+optional",
                    "additionalProperties": {
                      "type": "string"
                    }
                  }
                }
              },
              "namespaces": {
                "type": "array",
                "title": "namespaces specifies which namespaces the labelSelector applies to (matches against);\nnull or empty list means \"this pod's namespace\"\n+optional",
                "items": {
                  "type": "string"
                }
              },
              "topologyKey": {
                "description": "This pod should be co-located (affinity) or not co-located (anti-affinity) with the pods matching\nthe labelSelector in the specified namespaces, where co-located is defined as running on a node\nwhose value of the label with key topologyKey matches that of any node on which any of the\nselected pods is running.\nEmpty topologyKey is not allowed.",
                "type": "string"
              }
            }
          }
        }
      }
    },
    "podAntiAffinity": {
      "description": "Pod anti affinity is a group of inter pod anti affinity scheduling rules.",
      "type": "object",
      "properties": {
        "preferredDuringSchedulingIgnoredDuringExecution": {
          "type": "array",
          "title": "The scheduler will prefer to schedule pods to nodes that satisfy\nthe anti-affinity expressions specified by this field, but it may choose\na node that violates one or more of the expressions. The node that is\nmost preferred is the one with the greatest sum of weights, i.e.\nfor each node that meets all of the scheduling requirements (resource\nrequest, requiredDuringScheduling anti-affinity expressions, etc.),\ncompute a sum by iterating through the elements of this field and adding\n\"weight\" to the sum if the node has pods which matches the corresponding podAffinityTerm; the\nnode(s) with the highest sum are the most preferred.\n+optional",
          "items": {
            "type": "object",
            "title": "The weights of all of the matched WeightedPodAffinityTerm fields are added per-node to find the most preferred node(s)",
            "properties": {
              "podAffinityTerm": {
                "type": "object",
                "title": "Defines a set of pods (namely those matching the labelSelector\nrelative to the given namespace(s)) that this pod should be\nco-located (affinity) or not co-located (anti-affinity) with,\nwhere co-located is defined as running on a node whose value of\nthe label with key <topologyKey> matches that of any node on which\na pod of the set of pods is running",
                "properties": {
                  "labelSelector": {
                    "description": "A label selector is a label query over a set of resources. The result of matchLabels and\nmatchExpressions are ANDed. An empty label selector matches all objects. A null\nlabel selector matches no objects.",
                    "type": "object",
                    "properties": {
                      "matchExpressions": {
                        "type": "array",
                        "title": "matchExpressions is a list of label selector requirements. The requirements are ANDed.\n+optional",
                        "items": {
                          "description": "A label selector requirement is a selector that contains values, a key, and an operator that\nrelates the key and values.",
                          "type": "object",
                          "properties": {
                            "key": {
                              "type": "string",
                              "title": "key is the label key that the selector applies to.\n+patchMergeKey=key\n+patchStrategy=merge"
                            },
                            "operator": {
                              "description": "operator represents a key's relationship to a set of values.\nValid operators are In, NotIn, Exists and DoesNotExist.",
                              "type": "string"
                            },
                            "values": {
                              "type": "array",
                              "title": "values is an array of string values. If the operator is In or NotIn,\nthe values array must be non-empty. If the operator is Exists or DoesNotExist,\nthe values array must be empty. This array is replaced during a strategic\nmerge patch.\n+optional",
                              "items": {
                                "type": "string"
                              }
                            }
                          }
                        }
                      },
                      "matchLabels": {
                        "type": "object",
                        "title": "matchLabels is a map of {key,value} pairs. A single {key,value} in the matchLabels\nmap is equivalent to an element of matchExpressions, whose key field is \"key\", the\noperator is \"In\", and the values array contains only \"value\". The requirements are ANDed.\n+optional",
                        "additionalProperties": {
                          "type": "string"
                        }
                      }
                    }
                  },
                  "namespaces": {
                    "type": "array",
                    "title": "namespaces specifies which namespaces the labelSelector applies to (matches against);\nnull or empty list means \"this pod's namespace\"\n+optional",
                    "items": {
                      "type": "string"
                    }
                  },
                  "topologyKey": {
                    "description": "This pod should be co-located (affinity) or not co-located (anti-affinity) with the pods matching\nthe labelSelector in the specified namespaces, where co-located is defined as running on a node\nwhose value of the label with key topologyKey matches that of any node on which any of the\nselected pods is running.\nEmpty topologyKey is not allowed.",
                    "type": "string"
                  }
                }
              },
              "weight": {
                "description": "weight associated with matching the corresponding podAffinityTerm,\nin the range 1-100.",
                "type": "integer",
                "format": "int32"
              }
            }
          }
        },
        "requiredDuringSchedulingIgnoredDuringExecution": {
          "type": "array",
          "title": "If the anti-affinity requirements specified by this field are not met at\nscheduling time, the pod will not be scheduled onto the node.\nIf the anti-affinity requirements specified by this field cease to be met\nat some point during pod execution (e.g. due to a pod label update), the\nsystem may or may not try to eventually evict the pod from its node.\nWhen there are multiple elements, the lists of nodes corresponding to each\npodAffinityTerm are intersected, i.e. all terms must be satisfied.\n+optional",
          "items": {
            "type": "object",
            "title": "Defines a set of pods (namely those matching the labelSelector\nrelative to the given namespace(s)) that this pod should be\nco-located (affinity) or not co-located (anti-affinity) with,\nwhere co-located is defined as running on a node whose value of\nthe label with key <topologyKey> matches that of any node on which\na pod of the set of pods is running",
            "properties": {
              "labelSelector": {
                "description": "A label selector is a label query over a set of resources. The result of matchLabels and\nmatchExpressions are ANDed. An empty label selector matches all objects. A null\nlabel selector matches no objects.",
                "type": "object",
                "properties": {
                  "matchExpressions": {
                    "type": "array",
                    "title": "matchExpressions is a list of label selector requirements. The requirements are ANDed.\n+optional",
                    "items": {
                      "description": "A label selector requirement is a selector that contains values, a key, and an operator that\nrelates the key and values.",
                      "type": "object",
                      "properties": {
                        "key": {
                          "type": "string",
                          "title": "key is the label key that the selector applies to.\n+patchMergeKey=key\n+patchStrategy=merge"
                        },
                        "operator": {
                          "description": "operator represents a key's relationship to a set of values.\nValid operators are In, NotIn, Exists and DoesNotExist.",
                          "type": "string"
                        },
                        "values": {
                          "type": "array",
                          "title": "values is an array of string values. If the operator is In or NotIn,\nthe values array must be non-empty. If the operator is Exists or DoesNotExist,\nthe values array must be empty. This array is replaced during a strategic\nmerge patch.\n+optional",
                          "items": {
                            "type": "string"
                          }
                        }
                      }
                    }
                  },
                  "matchLabels": {
                    "type": "object",
                    "title": "matchLabels is a map of {key,value} pairs. A single {key,value} in the matchLabels\nmap is equivalent to an element of matchExpressions, whose key field is \"key\", the\noperator is \"In\", and the values array contains only \"value\". The requirements are ANDed.\n+optional",
                    "additionalProperties": {
                      "type": "string"
                    }
                  }
                }
              },
              "namespaces": {
                "type": "array",
                "title": "namespaces specifies which namespaces the labelSelector applies to (matches against);\nnull or empty list means \"this pod's namespace\"\n+optional",
                "items": {
                  "type": "string"
                }
              },
              "topologyKey": {
                "description": "This pod should be co-located (affinity) or not co-located (anti-affinity) with the pods matching\nthe labelSelector in the specified namespaces, where co-located is defined as running on a node\nwhose value of the label with key topologyKey matches that of any node on which any of the\nselected pods is running.\nEmpty topologyKey is not allowed.",
                "type": "string"
              }
            }
          }
        }
      }
    }
  },
  "$schema": "http://json-schema.org/schema#"
}