{
  "type": "object",
  "properties": {
    "links": {
      "type": "array",
      "items": {
        "type": "object",
        "title": "A link to another app.\n+patchStrategy=merge\n+patchMergeKey=name",
        "properties": {
          "name": {
            "type": "string",
            "title": "The name of the link, E.g. \"Workflow Logs\" or \"Pod Logs\""
          },
          "scope": {
            "type": "string",
            "title": "Either \"workflow\" or \"pod\""
          },
          "url": {
            "description": "The URL. May contain \"${metadata.namespace}\" and \"${metadata.name}\".",
            "type": "string"
          }
        }
      }
    },
    "managedNamespace": {
      "type": "string"
    }
  },
  "$schema": "http://json-schema.org/schema#"
}