{
  "type": "object",
  "title": "Defines a set of pods (namely those matching the labelSelector\nrelative to the given namespace(s)) that this pod should be\nco-located (affinity) or not co-located (anti-affinity) with,\nwhere co-located is defined as running on a node whose value of\nthe label with key <topologyKey> matches that of any node on which\na pod of the set of pods is running",
  "properties": {
    "labelSelector": {
      "description": "A label selector is a label query over a set of resources. The result of matchLabels and\nmatchExpressions are ANDed. An empty label selector matches all objects. A null\nlabel selector matches no objects.",
      "type": "object",
      "properties": {
        "matchExpressions": {
          "type": "array",
          "title": "matchExpressions is a list of label selector requirements. The requirements are ANDed.\n+optional",
          "items": {
            "description": "A label selector requirement is a selector that contains values, a key, and an operator that\nrelates the key and values.",
            "type": "object",
            "properties": {
              "key": {
                "type": "string",
                "title": "key is the label key that the selector applies to.\n+patchMergeKey=key\n+patchStrategy=merge"
              },
              "operator": {
                "description": "operator represents a key's relationship to a set of values.\nValid operators are In, NotIn, Exists and DoesNotExist.",
                "type": "string"
              },
              "values": {
                "type": "array",
                "title": "values is an array of string values. If the operator is In or NotIn,\nthe values array must be non-empty. If the operator is Exists or DoesNotExist,\nthe values array must be empty. This array is replaced during a strategic\nmerge patch.\n+optional",
                "items": {
                  "type": "string"
                }
              }
            }
          }
        },
        "matchLabels": {
          "type": "object",
          "title": "matchLabels is a map of {key,value} pairs. A single {key,value} in the matchLabels\nmap is equivalent to an element of matchExpressions, whose key field is \"key\", the\noperator is \"In\", and the values array contains only \"value\". The requirements are ANDed.\n+optional",
          "additionalProperties": {
            "type": "string"
          }
        }
      }
    },
    "namespaces": {
      "type": "array",
      "title": "namespaces specifies which namespaces the labelSelector applies to (matches against);\nnull or empty list means \"this pod's namespace\"\n+optional",
      "items": {
        "type": "string"
      }
    },
    "topologyKey": {
      "description": "This pod should be co-located (affinity) or not co-located (anti-affinity) with the pods matching\nthe labelSelector in the specified namespaces, where co-located is defined as running on a node\nwhose value of the label with key topologyKey matches that of any node on which any of the\nselected pods is running.\nEmpty topologyKey is not allowed.",
      "type": "string"
    }
  },
  "$schema": "http://json-schema.org/schema#"
}