{
  "description": "PodDisruptionBudgetSpec is a description of a PodDisruptionBudget.",
  "type": "object",
  "properties": {
    "maxUnavailable": {
      "description": "+protobuf=true\n+protobuf.options.(gogoproto.goproto_stringer)=false\n+k8s:openapi-gen=true",
      "type": "object",
      "title": "IntOrString is a type that can hold an int32 or a string.  When used in\nJSON or YAML marshalling and unmarshalling, it produces or consumes the\ninner type.  This allows you to have, for example, a JSON field that can\naccept a name or number.\nTODO: Rename to Int32OrString",
      "properties": {
        "intVal": {
          "type": "integer",
          "format": "int32"
        },
        "strVal": {
          "type": "string"
        },
        "type": {
          "type": "string",
          "format": "int64"
        }
      }
    },
    "minAvailable": {
      "description": "+protobuf=true\n+protobuf.options.(gogoproto.goproto_stringer)=false\n+k8s:openapi-gen=true",
      "type": "object",
      "title": "IntOrString is a type that can hold an int32 or a string.  When used in\nJSON or YAML marshalling and unmarshalling, it produces or consumes the\ninner type.  This allows you to have, for example, a JSON field that can\naccept a name or number.\nTODO: Rename to Int32OrString",
      "properties": {
        "intVal": {
          "type": "integer",
          "format": "int32"
        },
        "strVal": {
          "type": "string"
        },
        "type": {
          "type": "string",
          "format": "int64"
        }
      }
    },
    "selector": {
      "description": "A label selector is a label query over a set of resources. The result of matchLabels and\nmatchExpressions are ANDed. An empty label selector matches all objects. A null\nlabel selector matches no objects.",
      "type": "object",
      "properties": {
        "matchExpressions": {
          "type": "array",
          "title": "matchExpressions is a list of label selector requirements. The requirements are ANDed.\n+optional",
          "items": {
            "description": "A label selector requirement is a selector that contains values, a key, and an operator that\nrelates the key and values.",
            "type": "object",
            "properties": {
              "key": {
                "type": "string",
                "title": "key is the label key that the selector applies to.\n+patchMergeKey=key\n+patchStrategy=merge"
              },
              "operator": {
                "description": "operator represents a key's relationship to a set of values.\nValid operators are In, NotIn, Exists and DoesNotExist.",
                "type": "string"
              },
              "values": {
                "type": "array",
                "title": "values is an array of string values. If the operator is In or NotIn,\nthe values array must be non-empty. If the operator is Exists or DoesNotExist,\nthe values array must be empty. This array is replaced during a strategic\nmerge patch.\n+optional",
                "items": {
                  "type": "string"
                }
              }
            }
          }
        },
        "matchLabels": {
          "type": "object",
          "title": "matchLabels is a map of {key,value} pairs. A single {key,value} in the matchLabels\nmap is equivalent to an element of matchExpressions, whose key field is \"key\", the\noperator is \"In\", and the values array contains only \"value\". The requirements are ANDed.\n+optional",
          "additionalProperties": {
            "type": "string"
          }
        }
      }
    }
  },
  "$schema": "http://json-schema.org/schema#"
}