{
  "description": "PodLogOptions is the query options for a Pod's logs REST call.",
  "type": "object",
  "properties": {
    "container": {
      "type": "string",
      "title": "The container for which to stream logs. Defaults to only container if there is one container in the pod.\n+optional"
    },
    "follow": {
      "type": "boolean",
      "format": "boolean",
      "title": "Follow the log stream of the pod. Defaults to false.\n+optional"
    },
    "limitBytes": {
      "type": "string",
      "format": "int64",
      "title": "If set, the number of bytes to read from the server before terminating the\nlog output. This may not display a complete final line of logging, and may return\nslightly more or slightly less than the specified limit.\n+optional"
    },
    "previous": {
      "type": "boolean",
      "format": "boolean",
      "title": "Return previous terminated container logs. Defaults to false.\n+optional"
    },
    "sinceSeconds": {
      "type": "string",
      "format": "int64",
      "title": "A relative time in seconds before the current time from which to show logs. If this value\nprecedes the time a pod was started, only logs since the pod start will be returned.\nIf this value is in the future, no logs will be returned.\nOnly one of sinceSeconds or sinceTime may be specified.\n+optional"
    },
    "sinceTime": {
      "description": "Time is a wrapper around time.Time which supports correct\nmarshaling to YAML and JSON.  Wrappers are provided for many\nof the factory methods that the time package offers.\n\n+protobuf.options.marshal=false\n+protobuf.as=Timestamp\n+protobuf.options.(gogoproto.goproto_stringer)=false",
      "type": "object",
      "properties": {
        "nanos": {
          "description": "Non-negative fractions of a second at nanosecond resolution. Negative\nsecond values with fractions must still have non-negative nanos values\nthat count forward in time. Must be from 0 to 999,999,999\ninclusive. This field may be limited in precision depending on context.",
          "type": "integer",
          "format": "int32"
        },
        "seconds": {
          "description": "Represents seconds of UTC time since Unix epoch\n1970-01-01T00:00:00Z. Must be from 0001-01-01T00:00:00Z to\n9999-12-31T23:59:59Z inclusive.",
          "type": "string",
          "format": "int64"
        }
      }
    },
    "tailLines": {
      "type": "string",
      "format": "int64",
      "title": "If set, the number of lines from the end of the logs to show. If not specified,\nlogs are shown from the creation of the container or sinceSeconds or sinceTime\n+optional"
    },
    "timestamps": {
      "type": "boolean",
      "format": "boolean",
      "title": "If true, add an RFC3339 or RFC3339Nano timestamp at the beginning of every line\nof log output. Defaults to false.\n+optional"
    }
  },
  "$schema": "http://json-schema.org/schema#"
}